Determining if the pthread_create exist failed with the following output:
Change Dir: /home/arya/catkin_ws/src/build-subscriber-Desktop-Default/CMakeFiles/CMakeTmp

Run Build Command:"/usr/bin/make" "cmTC_614db/fast"
/usr/bin/make -f CMakeFiles/cmTC_614db.dir/build.make CMakeFiles/cmTC_614db.dir/build
make[1]: Entering directory '/home/arya/catkin_ws/src/build-subscriber-Desktop-Default/CMakeFiles/CMakeTmp'
Building C object CMakeFiles/cmTC_614db.dir/CheckSymbolExists.c.o
/usr/bin/gcc    -o CMakeFiles/cmTC_614db.dir/CheckSymbolExists.c.o   -c /home/arya/catkin_ws/src/build-subscriber-Desktop-Default/CMakeFiles/CMakeTmp/CheckSymbolExists.c
Linking C executable cmTC_614db
/usr/bin/cmake -E cmake_link_script CMakeFiles/cmTC_614db.dir/link.txt --verbose=1
/usr/bin/gcc      -rdynamic CMakeFiles/cmTC_614db.dir/CheckSymbolExists.c.o  -o cmTC_614db 
CMakeFiles/cmTC_614db.dir/CheckSymbolExists.c.o: In function `main':
CheckSymbolExists.c:(.text+0x1b): undefined reference to `pthread_create'
collect2: error: ld returned 1 exit status
CMakeFiles/cmTC_614db.dir/build.make:97: recipe for target 'cmTC_614db' failed
make[1]: *** [cmTC_614db] Error 1
make[1]: Leaving directory '/home/arya/catkin_ws/src/build-subscriber-Desktop-Default/CMakeFiles/CMakeTmp'
Makefile:126: recipe for target 'cmTC_614db/fast' failed
make: *** [cmTC_614db/fast] Error 2

File /home/arya/catkin_ws/src/build-subscriber-Desktop-Default/CMakeFiles/CMakeTmp/CheckSymbolExists.c:
/* */
#include <pthread.h>

int main(int argc, char** argv)
{
  (void)argv;
#ifndef pthread_create
  return ((int*)(&pthread_create))[argc];
#else
  (void)argc;
  return 0;
#endif
}

Determining if the function pthread_create exists in the pthreads failed with the following output:
Change Dir: /home/arya/catkin_ws/src/build-subscriber-Desktop-Default/CMakeFiles/CMakeTmp

Run Build Command:"/usr/bin/make" "cmTC_dfc44/fast"
/usr/bin/make -f CMakeFiles/cmTC_dfc44.dir/build.make CMakeFiles/cmTC_dfc44.dir/build
make[1]: Entering directory '/home/arya/catkin_ws/src/build-subscriber-Desktop-Default/CMakeFiles/CMakeTmp'
Building C object CMakeFiles/cmTC_dfc44.dir/CheckFunctionExists.c.o
/usr/bin/gcc   -DCHECK_FUNCTION_EXISTS=pthread_create   -o CMakeFiles/cmTC_dfc44.dir/CheckFunctionExists.c.o   -c /usr/share/cmake-3.10/Modules/CheckFunctionExists.c
Linking C executable cmTC_dfc44
/usr/bin/cmake -E cmake_link_script CMakeFiles/cmTC_dfc44.dir/link.txt --verbose=1
/usr/bin/gcc  -DCHECK_FUNCTION_EXISTS=pthread_create    -rdynamic CMakeFiles/cmTC_dfc44.dir/CheckFunctionExists.c.o  -o cmTC_dfc44 -lpthreads 
/usr/bin/ld: cannot find -lpthreads
collect2: error: ld returned 1 exit status
CMakeFiles/cmTC_dfc44.dir/build.make:97: recipe for target 'cmTC_dfc44' failed
make[1]: *** [cmTC_dfc44] Error 1
make[1]: Leaving directory '/home/arya/catkin_ws/src/build-subscriber-Desktop-Default/CMakeFiles/CMakeTmp'
Makefile:126: recipe for target 'cmTC_dfc44/fast' failed
make: *** [cmTC_dfc44/fast] Error 2


